{
    "shell-version": [
        "3.4",
        "3.6",
        "3.8",
        "3.10",
        "3.12",
        "3.14",
	"3.16",
	"3.18",
	"3.20",
	"3.22",
	"3.24",
	"3.26",
	"3.28",
	"3.30",
	"3.32",
	"3.34"
        ],
    "uuid": "status-area-horizontal-spacing@mathematical.coffee.gmail.com",
    "name": "Status Area Horizontal Spacing",
    "description": "Reduce the horizontal spacing between icons in the top-right status area",
    "settings-schema": "org.gnome.shell.extensions.status-area-horizontal-spacing",
    "url": "https://gitlab.com/p91paul/status-area-horizontal-spacing-gnome-shell-extension",
    "dev-version" : "2.1.4"
}
